IS415-GAA - Hands-on Exercise 1
…
Importing and Converting an Aspatial Data

Importing apatial data

listings <- read_csv("data/aspatial/listings.csv")
list(listings)

[[1]]
# A tibble: 4,161 × 75
       id listing…¹ scrap…² last_…³ source name  descr…⁴ neigh…⁵ pictu…⁶ host_id
    <dbl> <chr>       <dbl> <chr>   <chr>  <chr> <chr>   <chr>   <chr>     <dbl>
 1  50646 https://… 2.02e13 23/09/… previ… Plea… Fully … The se… https:…  227796
 2  71609 https://… 2.02e13 22/09/… city … Ensu… For 3 … <NA>    https:…  367042
 3  71896 https://… 2.02e13 22/09/… city … B&B … <b>The… <NA>    https:…  367042
 4  71903 https://… 2.02e13 22/09/… city … Room… Like y… Quiet … https:…  367042
 5 275344 https://… 2.02e13 22/09/… city … 15 m… Lovely… Bus st… https:… 1439258
 6 289234 https://… 2.02e13 22/09/… city … Book… This w… A quie… https:…  367042
 7 294281 https://… 2.02e13 22/09/… city … 5 mi… I have… <NA>    https:… 1521514
 8 324945 https://… 2.02e13 22/09/… city … Cozy… <b>The… <NA>    https:… 1439258
 9 330089 https://… 2.02e13 22/09/… city … Cozy… A unit… <NA>    https:… 1439258
10 330095 https://… 2.02e13 22/09/… city … 10 m… Cosy, … Near I… https:… 1439258
# … with 4,151 more rows, 65 more variables: host_url <chr>, host_name <chr>,
#   host_since <chr>, host_location <chr>, host_about <chr>,
#   host_response_time <chr>, host_response_rate <chr>,
#   host_acceptance_rate <chr>, host_is_superhost <lgl>,
#   host_thumbnail_url <chr>, host_picture_url <chr>, host_neighbourhood <chr>,
#   host_listings_count <dbl>, host_total_listings_count <dbl>,
#   host_verifications <chr>, host_has_profile_pic <lgl>, …
…
